[
    { 
      "id"       : 1,
      "username" : "Siti",
      "password" : "123Abc",
      "fullname" : "Siti Siti Siti"
    },
    {
      "id"       : 2,
      "username" : "Ahdi",
      "password" : "Abc123",
      "fullname" : "Ahdi Ahdi Ahdi"
    },
    {
      "id"       : 3,
      "username" : "Yati",
      "password" : "Abc123efG",
      "fullname" : "Yati Yati Yati"  
    }
]